-- Merging decision tree log ---
manifest
ADDED from /Users/imtiaz/AndroidStudioProjects/StarSync/app/src/main/AndroidManifest.xml:2:1-32:12
INJECTED from /Users/imtiaz/AndroidStudioProjects/StarSync/app/src/main/AndroidManifest.xml:2:1-32:12
INJECTED from /Users/imtiaz/AndroidStudioProjects/StarSync/app/src/main/AndroidManifest.xml:2:1-32:12
INJECTED from /Users/imtiaz/AndroidStudioProjects/StarSync/app/src/main/AndroidManifest.xml:2:1-32:12
MERGED from [com.google.android.material:material:1.0.0] /Users/imtiaz/.gradle/caches/transforms-2/files-2.1/e0a49cbc44b78445580a35ef121e57f7/material-1.0.0/AndroidManifest.xml:17:1-24:12
MERGED from [androidx.appcompat:appcompat:1.0.2] /Users/imtiaz/.gradle/caches/transforms-2/files-2.1/690cfa965b7e11c382459b6670530cf1/appcompat-1.0.2/AndroidManifest.xml:17:1-22:12
MERGED from [androidx.recyclerview:recyclerview:1.0.0] /Users/imtiaz/.gradle/caches/transforms-2/files-2.1/4bffef8e0b348ad20e1b27ee12dd8bfa/recyclerview-1.0.0/AndroidManifest.xml:17:1-22:12
MERGED from [androidx.constraintlayout:constraintlayout:1.1.3] /Users/imtiaz/.gradle/caches/transforms-2/files-2.1/3f66bd7444508c90efbb25a4a04c7366/constraintlayout-1.1.3/AndroidManifest.xml:2:1-11:12
MERGED from [androidx.work:work-runtime-ktx:2.1.0] /Users/imtiaz/.gradle/caches/transforms-2/files-2.1/199acde53da7f2e4b0fca7614c9d0f1e/work-runtime-ktx-2.1.0/AndroidManifest.xml:17:1-24:12
MERGED from [androidx.work:work-runtime:2.1.0] /Users/imtiaz/.gradle/caches/transforms-2/files-2.1/3e6503735076ae8de0e110887b951a7e/work-runtime-2.1.0/AndroidManifest.xml:17:1-125:12
MERGED from [androidx.room:room-runtime:2.1.0] /Users/imtiaz/.gradle/caches/transforms-2/files-2.1/5b2ae658b535ff5d7028032083f378e4/room-runtime-2.1.0/AndroidManifest.xml:17:1-30:12
MERGED from [androidx.fragment:fragment:1.0.0] /Users/imtiaz/.gradle/caches/transforms-2/files-2.1/f8fde23bb9a905a02836e99fcc04ef9c/fragment-1.0.0/AndroidManifest.xml:17:1-22:12
MERGED from [androidx.vectordrawable:vectordrawable-animated:1.0.0] /Users/imtiaz/.gradle/caches/transforms-2/files-2.1/1cedbdccfc1d3789630a1d1d8e30220e/vectordrawable-animated-1.0.0/AndroidManifest.xml:17:1-22:12
MERGED from [androidx.legacy:legacy-support-core-ui:1.0.0] /Users/imtiaz/.gradle/caches/transforms-2/files-2.1/21c186c1dc5bb79ca52a2c18729aed80/legacy-support-core-ui-1.0.0/AndroidManifest.xml:17:1-22:12
MERGED from [androidx.legacy:legacy-support-core-utils:1.0.0] /Users/imtiaz/.gradle/caches/transforms-2/files-2.1/61433adf8dffbead5d210c4167d98dd3/legacy-support-core-utils-1.0.0/AndroidManifest.xml:17:1-22:12
MERGED from [androidx.vectordrawable:vectordrawable:1.0.1] /Users/imtiaz/.gradle/caches/transforms-2/files-2.1/fb0f31eff85cdb56540c78dac11c1f39/vectordrawable-1.0.1/AndroidManifest.xml:17:1-22:12
MERGED from [androidx.transition:transition:1.0.0] /Users/imtiaz/.gradle/caches/transforms-2/files-2.1/74af359e922e3e73c9fcc97025c69fc2/transition-1.0.0/AndroidManifest.xml:17:1-22:12
MERGED from [androidx.loader:loader:1.0.0] /Users/imtiaz/.gradle/caches/transforms-2/files-2.1/22defaa410e740fc85ee26518025fb30/loader-1.0.0/AndroidManifest.xml:17:1-22:12
MERGED from [androidx.viewpager:viewpager:1.0.0] /Users/imtiaz/.gradle/caches/transforms-2/files-2.1/2821aa3b81c6270451d12f5c88781f1a/viewpager-1.0.0/AndroidManifest.xml:17:1-22:12
MERGED from [androidx.coordinatorlayout:coordinatorlayout:1.0.0] /Users/imtiaz/.gradle/caches/transforms-2/files-2.1/690aeb5a555826a08cef80b37aad5695/coordinatorlayout-1.0.0/AndroidManifest.xml:17:1-22:12
MERGED from [androidx.drawerlayout:drawerlayout:1.0.0] /Users/imtiaz/.gradle/caches/transforms-2/files-2.1/7ee81c90c1038bc4f1b98e58c2e5ce88/drawerlayout-1.0.0/AndroidManifest.xml:17:1-22:12
MERGED from [androidx.slidingpanelayout:slidingpanelayout:1.0.0] /Users/imtiaz/.gradle/caches/transforms-2/files-2.1/9acd280e2ab8fd3347e68d896327dea6/slidingpanelayout-1.0.0/AndroidManifest.xml:17:1-22:12
MERGED from [androidx.customview:customview:1.0.0] /Users/imtiaz/.gradle/caches/transforms-2/files-2.1/7beb7e7ded82e26e28678209d88483af/customview-1.0.0/AndroidManifest.xml:17:1-22:12
MERGED from [androidx.swiperefreshlayout:swiperefreshlayout:1.0.0] /Users/imtiaz/.gradle/caches/transforms-2/files-2.1/0abe0f1d1ac1a724cd4f1c8476c287f7/swiperefreshlayout-1.0.0/AndroidManifest.xml:17:1-22:12
MERGED from [androidx.asynclayoutinflater:asynclayoutinflater:1.0.0] /Users/imtiaz/.gradle/caches/transforms-2/files-2.1/9b73de3079686c9f6ebc3e40b5495b5c/asynclayoutinflater-1.0.0/AndroidManifest.xml:17:1-22:12
MERGED from [androidx.core:core:1.0.1] /Users/imtiaz/.gradle/caches/transforms-2/files-2.1/ab9946b6f7a7a95ce5c79b7be619a883/core-1.0.1/AndroidManifest.xml:17:1-24:12
MERGED from [androidx.versionedparcelable:versionedparcelable:1.0.0] /Users/imtiaz/.gradle/caches/transforms-2/files-2.1/de2b3e8cb60621bad87880fff68ac3c7/versionedparcelable-1.0.0/AndroidManifest.xml:17:1-25:12
MERGED from [androidx.cursoradapter:cursoradapter:1.0.0] /Users/imtiaz/.gradle/caches/transforms-2/files-2.1/71eade5d314e594e483757e8cf5b81de/cursoradapter-1.0.0/AndroidManifest.xml:17:1-22:12
MERGED from [androidx.cardview:cardview:1.0.0] /Users/imtiaz/.gradle/caches/transforms-2/files-2.1/0fb5753309ea738e10dfeb3841e9670d/cardview-1.0.0/AndroidManifest.xml:17:1-22:12
MERGED from [androidx.sqlite:sqlite-framework:2.0.1] /Users/imtiaz/.gradle/caches/transforms-2/files-2.1/624d5cd17cdb96671dd6ab59137550c3/sqlite-framework-2.0.1/AndroidManifest.xml:17:1-22:12
MERGED from [androidx.sqlite:sqlite:2.0.1] /Users/imtiaz/.gradle/caches/transforms-2/files-2.1/cc53cb80a4f645356bc1b01912fc8c9b/sqlite-2.0.1/AndroidManifest.xml:17:1-22:12
MERGED from [androidx.lifecycle:lifecycle-livedata:2.0.0] /Users/imtiaz/.gradle/caches/transforms-2/files-2.1/cdeb3d84d2f9af673c9ac034634e826f/lifecycle-livedata-2.0.0/AndroidManifest.xml:17:1-22:12
MERGED from [androidx.lifecycle:lifecycle-livedata-core:2.0.0] /Users/imtiaz/.gradle/caches/transforms-2/files-2.1/00a3a65d2e04afc483113c228707ea83/lifecycle-livedata-core-2.0.0/AndroidManifest.xml:17:1-22:12
MERGED from [androidx.arch.core:core-runtime:2.0.1] /Users/imtiaz/.gradle/caches/transforms-2/files-2.1/9911373ac01e5233ecec7974cdb44d24/core-runtime-2.0.1/AndroidManifest.xml:17:1-22:12
MERGED from [androidx.lifecycle:lifecycle-service:2.0.0] /Users/imtiaz/.gradle/caches/transforms-2/files-2.1/5d366eeb972705d0274702cf2eefdafe/lifecycle-service-2.0.0/AndroidManifest.xml:17:1-22:12
MERGED from [androidx.lifecycle:lifecycle-runtime:2.0.0] /Users/imtiaz/.gradle/caches/transforms-2/files-2.1/807f3ecd5eb446b17830e8d3980708da/lifecycle-runtime-2.0.0/AndroidManifest.xml:17:1-22:12
MERGED from [androidx.documentfile:documentfile:1.0.0] /Users/imtiaz/.gradle/caches/transforms-2/files-2.1/711f04e157ad87ebb333f65a9801c142/documentfile-1.0.0/AndroidManifest.xml:17:1-22:12
MERGED from [androidx.localbroadcastmanager:localbroadcastmanager:1.0.0] /Users/imtiaz/.gradle/caches/transforms-2/files-2.1/ba2b6719c6e066691aebcd2baf385a47/localbroadcastmanager-1.0.0/AndroidManifest.xml:17:1-22:12
MERGED from [androidx.print:print:1.0.0] /Users/imtiaz/.gradle/caches/transforms-2/files-2.1/cd313b8837998fadbae1597ba9092f28/print-1.0.0/AndroidManifest.xml:17:1-22:12
MERGED from [androidx.lifecycle:lifecycle-viewmodel:2.0.0] /Users/imtiaz/.gradle/caches/transforms-2/files-2.1/4edad3bce772ed8ef98c86505afb37e9/lifecycle-viewmodel-2.0.0/AndroidManifest.xml:17:1-22:12
MERGED from [androidx.interpolator:interpolator:1.0.0] /Users/imtiaz/.gradle/caches/transforms-2/files-2.1/d68fa1d31ac231d1bae77e58f0fdce42/interpolator-1.0.0/AndroidManifest.xml:17:1-22:12
INJECTED from /Users/imtiaz/AndroidStudioProjects/StarSync/app/src/main/AndroidManifest.xml:2:1-32:12
INJECTED from /Users/imtiaz/AndroidStudioProjects/StarSync/app/src/main/AndroidManifest.xml:2:1-32:12
INJECTED from /Users/imtiaz/AndroidStudioProjects/StarSync/app/src/main/AndroidManifest.xml:2:1-32:12
	package
		ADDED from /Users/imtiaz/AndroidStudioProjects/StarSync/app/src/main/AndroidManifest.xml:2:11-55
		INJECTED from /Users/imtiaz/AndroidStudioProjects/StarSync/app/src/main/AndroidManifest.xml
		INJECTED from /Users/imtiaz/AndroidStudioProjects/StarSync/app/src/main/AndroidManifest.xml
	android:versionName
		INJECTED from /Users/imtiaz/AndroidStudioProjects/StarSync/app/src/main/AndroidManifest.xml
		ADDED from /Users/imtiaz/AndroidStudioProjects/StarSync/app/src/main/AndroidManifest.xml:2:1-32:12
		INJECTED from /Users/imtiaz/AndroidStudioProjects/StarSync/app/src/main/AndroidManifest.xml
	xmlns:tools
		ADDED from /Users/imtiaz/AndroidStudioProjects/StarSync/app/src/main/AndroidManifest.xml:4:11-57
	android:versionCode
		INJECTED from /Users/imtiaz/AndroidStudioProjects/StarSync/app/src/main/AndroidManifest.xml
		ADDED from /Users/imtiaz/AndroidStudioProjects/StarSync/app/src/main/AndroidManifest.xml:2:1-32:12
		INJECTED from /Users/imtiaz/AndroidStudioProjects/StarSync/app/src/main/AndroidManifest.xml
	xmlns:android
		ADDED from /Users/imtiaz/AndroidStudioProjects/StarSync/app/src/main/AndroidManifest.xml:3:11-69
uses-permission#android.permission.INTERNET
ADDED from /Users/imtiaz/AndroidStudioProjects/StarSync/app/src/main/AndroidManifest.xml:6:3-64
	android:name
		ADDED from /Users/imtiaz/AndroidStudioProjects/StarSync/app/src/main/AndroidManifest.xml:6:20-62
uses-permission#android.permission.ACCESS_NETWORK_STATE
ADDED from /Users/imtiaz/AndroidStudioProjects/StarSync/app/src/main/AndroidManifest.xml:7:3-76
MERGED from [androidx.work:work-runtime:2.1.0] /Users/imtiaz/.gradle/caches/transforms-2/files-2.1/3e6503735076ae8de0e110887b951a7e/work-runtime-2.1.0/AndroidManifest.xml:26:5-79
MERGED from [androidx.work:work-runtime:2.1.0] /Users/imtiaz/.gradle/caches/transforms-2/files-2.1/3e6503735076ae8de0e110887b951a7e/work-runtime-2.1.0/AndroidManifest.xml:26:5-79
	android:name
		ADDED from /Users/imtiaz/AndroidStudioProjects/StarSync/app/src/main/AndroidManifest.xml:7:20-74
application
ADDED from /Users/imtiaz/AndroidStudioProjects/StarSync/app/src/main/AndroidManifest.xml:9:3-30:17
MERGED from [com.google.android.material:material:1.0.0] /Users/imtiaz/.gradle/caches/transforms-2/files-2.1/e0a49cbc44b78445580a35ef121e57f7/material-1.0.0/AndroidManifest.xml:22:5-20
MERGED from [com.google.android.material:material:1.0.0] /Users/imtiaz/.gradle/caches/transforms-2/files-2.1/e0a49cbc44b78445580a35ef121e57f7/material-1.0.0/AndroidManifest.xml:22:5-20
MERGED from [androidx.constraintlayout:constraintlayout:1.1.3] /Users/imtiaz/.gradle/caches/transforms-2/files-2.1/3f66bd7444508c90efbb25a4a04c7366/constraintlayout-1.1.3/AndroidManifest.xml:9:5-20
MERGED from [androidx.constraintlayout:constraintlayout:1.1.3] /Users/imtiaz/.gradle/caches/transforms-2/files-2.1/3f66bd7444508c90efbb25a4a04c7366/constraintlayout-1.1.3/AndroidManifest.xml:9:5-20
MERGED from [androidx.work:work-runtime:2.1.0] /Users/imtiaz/.gradle/caches/transforms-2/files-2.1/3e6503735076ae8de0e110887b951a7e/work-runtime-2.1.0/AndroidManifest.xml:29:5-123:19
MERGED from [androidx.work:work-runtime:2.1.0] /Users/imtiaz/.gradle/caches/transforms-2/files-2.1/3e6503735076ae8de0e110887b951a7e/work-runtime-2.1.0/AndroidManifest.xml:29:5-123:19
MERGED from [androidx.room:room-runtime:2.1.0] /Users/imtiaz/.gradle/caches/transforms-2/files-2.1/5b2ae658b535ff5d7028032083f378e4/room-runtime-2.1.0/AndroidManifest.xml:24:5-28:19
MERGED from [androidx.room:room-runtime:2.1.0] /Users/imtiaz/.gradle/caches/transforms-2/files-2.1/5b2ae658b535ff5d7028032083f378e4/room-runtime-2.1.0/AndroidManifest.xml:24:5-28:19
MERGED from [androidx.core:core:1.0.1] /Users/imtiaz/.gradle/caches/transforms-2/files-2.1/ab9946b6f7a7a95ce5c79b7be619a883/core-1.0.1/AndroidManifest.xml:22:5-89
MERGED from [androidx.core:core:1.0.1] /Users/imtiaz/.gradle/caches/transforms-2/files-2.1/ab9946b6f7a7a95ce5c79b7be619a883/core-1.0.1/AndroidManifest.xml:22:5-89
MERGED from [androidx.versionedparcelable:versionedparcelable:1.0.0] /Users/imtiaz/.gradle/caches/transforms-2/files-2.1/de2b3e8cb60621bad87880fff68ac3c7/versionedparcelable-1.0.0/AndroidManifest.xml:22:5-23:19
MERGED from [androidx.versionedparcelable:versionedparcelable:1.0.0] /Users/imtiaz/.gradle/caches/transforms-2/files-2.1/de2b3e8cb60621bad87880fff68ac3c7/versionedparcelable-1.0.0/AndroidManifest.xml:22:5-23:19
	android:appComponentFactory
		ADDED from [androidx.core:core:1.0.1] /Users/imtiaz/.gradle/caches/transforms-2/files-2.1/ab9946b6f7a7a95ce5c79b7be619a883/core-1.0.1/AndroidManifest.xml:22:18-86
	android:supportsRtl
		ADDED from /Users/imtiaz/AndroidStudioProjects/StarSync/app/src/main/AndroidManifest.xml:15:7-33
	android:label
		ADDED from /Users/imtiaz/AndroidStudioProjects/StarSync/app/src/main/AndroidManifest.xml:13:7-39
	tools:ignore
		ADDED from /Users/imtiaz/AndroidStudioProjects/StarSync/app/src/main/AndroidManifest.xml:17:7-46
	android:roundIcon
		ADDED from /Users/imtiaz/AndroidStudioProjects/StarSync/app/src/main/AndroidManifest.xml:14:7-52
	android:icon
		ADDED from /Users/imtiaz/AndroidStudioProjects/StarSync/app/src/main/AndroidManifest.xml:12:7-41
	android:allowBackup
		ADDED from /Users/imtiaz/AndroidStudioProjects/StarSync/app/src/main/AndroidManifest.xml:11:7-34
	android:theme
		ADDED from /Users/imtiaz/AndroidStudioProjects/StarSync/app/src/main/AndroidManifest.xml:16:7-38
	android:name
		ADDED from /Users/imtiaz/AndroidStudioProjects/StarSync/app/src/main/AndroidManifest.xml:10:7-34
activity#com.raywenderlich.android.starsync.ui.splashscreen.SplashActivity
ADDED from /Users/imtiaz/AndroidStudioProjects/StarSync/app/src/main/AndroidManifest.xml:20:5-26:16
	android:name
		ADDED from /Users/imtiaz/AndroidStudioProjects/StarSync/app/src/main/AndroidManifest.xml:20:15-61
intent-filter#action:name:android.intent.action.MAIN+category:name:android.intent.category.LAUNCHER
ADDED from /Users/imtiaz/AndroidStudioProjects/StarSync/app/src/main/AndroidManifest.xml:21:7-25:23
action#android.intent.action.MAIN
ADDED from /Users/imtiaz/AndroidStudioProjects/StarSync/app/src/main/AndroidManifest.xml:22:9-60
	android:name
		ADDED from /Users/imtiaz/AndroidStudioProjects/StarSync/app/src/main/AndroidManifest.xml:22:17-58
category#android.intent.category.LAUNCHER
ADDED from /Users/imtiaz/AndroidStudioProjects/StarSync/app/src/main/AndroidManifest.xml:24:9-68
	android:name
		ADDED from /Users/imtiaz/AndroidStudioProjects/StarSync/app/src/main/AndroidManifest.xml:24:19-66
activity#com.raywenderlich.android.starsync.ui.mainscreen.MainActivity
ADDED from /Users/imtiaz/AndroidStudioProjects/StarSync/app/src/main/AndroidManifest.xml:29:5-59
	android:name
		ADDED from /Users/imtiaz/AndroidStudioProjects/StarSync/app/src/main/AndroidManifest.xml:29:15-57
uses-sdk
INJECTED from /Users/imtiaz/AndroidStudioProjects/StarSync/app/src/main/AndroidManifest.xml reason: use-sdk injection requested
INJECTED from /Users/imtiaz/AndroidStudioProjects/StarSync/app/src/main/AndroidManifest.xml
INJECTED from /Users/imtiaz/AndroidStudioProjects/StarSync/app/src/main/AndroidManifest.xml
MERGED from [com.google.android.material:material:1.0.0] /Users/imtiaz/.gradle/caches/transforms-2/files-2.1/e0a49cbc44b78445580a35ef121e57f7/material-1.0.0/AndroidManifest.xml:20:5-44
MERGED from [com.google.android.material:material:1.0.0] /Users/imtiaz/.gradle/caches/transforms-2/files-2.1/e0a49cbc44b78445580a35ef121e57f7/material-1.0.0/AndroidManifest.xml:20:5-44
MERGED from [androidx.appcompat:appcompat:1.0.2] /Users/imtiaz/.gradle/caches/transforms-2/files-2.1/690cfa965b7e11c382459b6670530cf1/appcompat-1.0.2/AndroidManifest.xml:20:5-44
MERGED from [androidx.appcompat:appcompat:1.0.2] /Users/imtiaz/.gradle/caches/transforms-2/files-2.1/690cfa965b7e11c382459b6670530cf1/appcompat-1.0.2/AndroidManifest.xml:20:5-44
MERGED from [androidx.recyclerview:recyclerview:1.0.0] /Users/imtiaz/.gradle/caches/transforms-2/files-2.1/4bffef8e0b348ad20e1b27ee12dd8bfa/recyclerview-1.0.0/AndroidManifest.xml:20:5-44
MERGED from [androidx.recyclerview:recyclerview:1.0.0] /Users/imtiaz/.gradle/caches/transforms-2/files-2.1/4bffef8e0b348ad20e1b27ee12dd8bfa/recyclerview-1.0.0/AndroidManifest.xml:20:5-44
MERGED from [androidx.constraintlayout:constraintlayout:1.1.3] /Users/imtiaz/.gradle/caches/transforms-2/files-2.1/3f66bd7444508c90efbb25a4a04c7366/constraintlayout-1.1.3/AndroidManifest.xml:5:5-7:41
MERGED from [androidx.constraintlayout:constraintlayout:1.1.3] /Users/imtiaz/.gradle/caches/transforms-2/files-2.1/3f66bd7444508c90efbb25a4a04c7366/constraintlayout-1.1.3/AndroidManifest.xml:5:5-7:41
MERGED from [androidx.work:work-runtime-ktx:2.1.0] /Users/imtiaz/.gradle/caches/transforms-2/files-2.1/199acde53da7f2e4b0fca7614c9d0f1e/work-runtime-ktx-2.1.0/AndroidManifest.xml:20:5-22:41
MERGED from [androidx.work:work-runtime-ktx:2.1.0] /Users/imtiaz/.gradle/caches/transforms-2/files-2.1/199acde53da7f2e4b0fca7614c9d0f1e/work-runtime-ktx-2.1.0/AndroidManifest.xml:20:5-22:41
MERGED from [androidx.work:work-runtime:2.1.0] /Users/imtiaz/.gradle/caches/transforms-2/files-2.1/3e6503735076ae8de0e110887b951a7e/work-runtime-2.1.0/AndroidManifest.xml:21:5-23:41
MERGED from [androidx.work:work-runtime:2.1.0] /Users/imtiaz/.gradle/caches/transforms-2/files-2.1/3e6503735076ae8de0e110887b951a7e/work-runtime-2.1.0/AndroidManifest.xml:21:5-23:41
MERGED from [androidx.room:room-runtime:2.1.0] /Users/imtiaz/.gradle/caches/transforms-2/files-2.1/5b2ae658b535ff5d7028032083f378e4/room-runtime-2.1.0/AndroidManifest.xml:20:5-22:41
MERGED from [androidx.room:room-runtime:2.1.0] /Users/imtiaz/.gradle/caches/transforms-2/files-2.1/5b2ae658b535ff5d7028032083f378e4/room-runtime-2.1.0/AndroidManifest.xml:20:5-22:41
MERGED from [androidx.fragment:fragment:1.0.0] /Users/imtiaz/.gradle/caches/transforms-2/files-2.1/f8fde23bb9a905a02836e99fcc04ef9c/fragment-1.0.0/AndroidManifest.xml:20:5-44
MERGED from [androidx.fragment:fragment:1.0.0] /Users/imtiaz/.gradle/caches/transforms-2/files-2.1/f8fde23bb9a905a02836e99fcc04ef9c/fragment-1.0.0/AndroidManifest.xml:20:5-44
MERGED from [androidx.vectordrawable:vectordrawable-animated:1.0.0] /Users/imtiaz/.gradle/caches/transforms-2/files-2.1/1cedbdccfc1d3789630a1d1d8e30220e/vectordrawable-animated-1.0.0/AndroidManifest.xml:20:5-44
MERGED from [androidx.vectordrawable:vectordrawable-animated:1.0.0] /Users/imtiaz/.gradle/caches/transforms-2/files-2.1/1cedbdccfc1d3789630a1d1d8e30220e/vectordrawable-animated-1.0.0/AndroidManifest.xml:20:5-44
MERGED from [androidx.legacy:legacy-support-core-ui:1.0.0] /Users/imtiaz/.gradle/caches/transforms-2/files-2.1/21c186c1dc5bb79ca52a2c18729aed80/legacy-support-core-ui-1.0.0/AndroidManifest.xml:20:5-44
MERGED from [androidx.legacy:legacy-support-core-ui:1.0.0] /Users/imtiaz/.gradle/caches/transforms-2/files-2.1/21c186c1dc5bb79ca52a2c18729aed80/legacy-support-core-ui-1.0.0/AndroidManifest.xml:20:5-44
MERGED from [androidx.legacy:legacy-support-core-utils:1.0.0] /Users/imtiaz/.gradle/caches/transforms-2/files-2.1/61433adf8dffbead5d210c4167d98dd3/legacy-support-core-utils-1.0.0/AndroidManifest.xml:20:5-44
MERGED from [androidx.legacy:legacy-support-core-utils:1.0.0] /Users/imtiaz/.gradle/caches/transforms-2/files-2.1/61433adf8dffbead5d210c4167d98dd3/legacy-support-core-utils-1.0.0/AndroidManifest.xml:20:5-44
MERGED from [androidx.vectordrawable:vectordrawable:1.0.1] /Users/imtiaz/.gradle/caches/transforms-2/files-2.1/fb0f31eff85cdb56540c78dac11c1f39/vectordrawable-1.0.1/AndroidManifest.xml:20:5-44
MERGED from [androidx.vectordrawable:vectordrawable:1.0.1] /Users/imtiaz/.gradle/caches/transforms-2/files-2.1/fb0f31eff85cdb56540c78dac11c1f39/vectordrawable-1.0.1/AndroidManifest.xml:20:5-44
MERGED from [androidx.transition:transition:1.0.0] /Users/imtiaz/.gradle/caches/transforms-2/files-2.1/74af359e922e3e73c9fcc97025c69fc2/transition-1.0.0/AndroidManifest.xml:20:5-44
MERGED from [androidx.transition:transition:1.0.0] /Users/imtiaz/.gradle/caches/transforms-2/files-2.1/74af359e922e3e73c9fcc97025c69fc2/transition-1.0.0/AndroidManifest.xml:20:5-44
MERGED from [androidx.loader:loader:1.0.0] /Users/imtiaz/.gradle/caches/transforms-2/files-2.1/22defaa410e740fc85ee26518025fb30/loader-1.0.0/AndroidManifest.xml:20:5-44
MERGED from [androidx.loader:loader:1.0.0] /Users/imtiaz/.gradle/caches/transforms-2/files-2.1/22defaa410e740fc85ee26518025fb30/loader-1.0.0/AndroidManifest.xml:20:5-44
MERGED from [androidx.viewpager:viewpager:1.0.0] /Users/imtiaz/.gradle/caches/transforms-2/files-2.1/2821aa3b81c6270451d12f5c88781f1a/viewpager-1.0.0/AndroidManifest.xml:20:5-44
MERGED from [androidx.viewpager:viewpager:1.0.0] /Users/imtiaz/.gradle/caches/transforms-2/files-2.1/2821aa3b81c6270451d12f5c88781f1a/viewpager-1.0.0/AndroidManifest.xml:20:5-44
MERGED from [androidx.coordinatorlayout:coordinatorlayout:1.0.0] /Users/imtiaz/.gradle/caches/transforms-2/files-2.1/690aeb5a555826a08cef80b37aad5695/coordinatorlayout-1.0.0/AndroidManifest.xml:20:5-44
MERGED from [androidx.coordinatorlayout:coordinatorlayout:1.0.0] /Users/imtiaz/.gradle/caches/transforms-2/files-2.1/690aeb5a555826a08cef80b37aad5695/coordinatorlayout-1.0.0/AndroidManifest.xml:20:5-44
MERGED from [androidx.drawerlayout:drawerlayout:1.0.0] /Users/imtiaz/.gradle/caches/transforms-2/files-2.1/7ee81c90c1038bc4f1b98e58c2e5ce88/drawerlayout-1.0.0/AndroidManifest.xml:20:5-44
MERGED from [androidx.drawerlayout:drawerlayout:1.0.0] /Users/imtiaz/.gradle/caches/transforms-2/files-2.1/7ee81c90c1038bc4f1b98e58c2e5ce88/drawerlayout-1.0.0/AndroidManifest.xml:20:5-44
MERGED from [androidx.slidingpanelayout:slidingpanelayout:1.0.0] /Users/imtiaz/.gradle/caches/transforms-2/files-2.1/9acd280e2ab8fd3347e68d896327dea6/slidingpanelayout-1.0.0/AndroidManifest.xml:20:5-44
MERGED from [androidx.slidingpanelayout:slidingpanelayout:1.0.0] /Users/imtiaz/.gradle/caches/transforms-2/files-2.1/9acd280e2ab8fd3347e68d896327dea6/slidingpanelayout-1.0.0/AndroidManifest.xml:20:5-44
MERGED from [androidx.customview:customview:1.0.0] /Users/imtiaz/.gradle/caches/transforms-2/files-2.1/7beb7e7ded82e26e28678209d88483af/customview-1.0.0/AndroidManifest.xml:20:5-44
MERGED from [androidx.customview:customview:1.0.0] /Users/imtiaz/.gradle/caches/transforms-2/files-2.1/7beb7e7ded82e26e28678209d88483af/customview-1.0.0/AndroidManifest.xml:20:5-44
MERGED from [androidx.swiperefreshlayout:swiperefreshlayout:1.0.0] /Users/imtiaz/.gradle/caches/transforms-2/files-2.1/0abe0f1d1ac1a724cd4f1c8476c287f7/swiperefreshlayout-1.0.0/AndroidManifest.xml:20:5-44
MERGED from [androidx.swiperefreshlayout:swiperefreshlayout:1.0.0] /Users/imtiaz/.gradle/caches/transforms-2/files-2.1/0abe0f1d1ac1a724cd4f1c8476c287f7/swiperefreshlayout-1.0.0/AndroidManifest.xml:20:5-44
MERGED from [androidx.asynclayoutinflater:asynclayoutinflater:1.0.0] /Users/imtiaz/.gradle/caches/transforms-2/files-2.1/9b73de3079686c9f6ebc3e40b5495b5c/asynclayoutinflater-1.0.0/AndroidManifest.xml:20:5-44
MERGED from [androidx.asynclayoutinflater:asynclayoutinflater:1.0.0] /Users/imtiaz/.gradle/caches/transforms-2/files-2.1/9b73de3079686c9f6ebc3e40b5495b5c/asynclayoutinflater-1.0.0/AndroidManifest.xml:20:5-44
MERGED from [androidx.core:core:1.0.1] /Users/imtiaz/.gradle/caches/transforms-2/files-2.1/ab9946b6f7a7a95ce5c79b7be619a883/core-1.0.1/AndroidManifest.xml:20:5-44
MERGED from [androidx.core:core:1.0.1] /Users/imtiaz/.gradle/caches/transforms-2/files-2.1/ab9946b6f7a7a95ce5c79b7be619a883/core-1.0.1/AndroidManifest.xml:20:5-44
MERGED from [androidx.versionedparcelable:versionedparcelable:1.0.0] /Users/imtiaz/.gradle/caches/transforms-2/files-2.1/de2b3e8cb60621bad87880fff68ac3c7/versionedparcelable-1.0.0/AndroidManifest.xml:20:5-44
MERGED from [androidx.versionedparcelable:versionedparcelable:1.0.0] /Users/imtiaz/.gradle/caches/transforms-2/files-2.1/de2b3e8cb60621bad87880fff68ac3c7/versionedparcelable-1.0.0/AndroidManifest.xml:20:5-44
MERGED from [androidx.cursoradapter:cursoradapter:1.0.0] /Users/imtiaz/.gradle/caches/transforms-2/files-2.1/71eade5d314e594e483757e8cf5b81de/cursoradapter-1.0.0/AndroidManifest.xml:20:5-44
MERGED from [androidx.cursoradapter:cursoradapter:1.0.0] /Users/imtiaz/.gradle/caches/transforms-2/files-2.1/71eade5d314e594e483757e8cf5b81de/cursoradapter-1.0.0/AndroidManifest.xml:20:5-44
MERGED from [androidx.cardview:cardview:1.0.0] /Users/imtiaz/.gradle/caches/transforms-2/files-2.1/0fb5753309ea738e10dfeb3841e9670d/cardview-1.0.0/AndroidManifest.xml:20:5-44
MERGED from [androidx.cardview:cardview:1.0.0] /Users/imtiaz/.gradle/caches/transforms-2/files-2.1/0fb5753309ea738e10dfeb3841e9670d/cardview-1.0.0/AndroidManifest.xml:20:5-44
MERGED from [androidx.sqlite:sqlite-framework:2.0.1] /Users/imtiaz/.gradle/caches/transforms-2/files-2.1/624d5cd17cdb96671dd6ab59137550c3/sqlite-framework-2.0.1/AndroidManifest.xml:20:5-44
MERGED from [androidx.sqlite:sqlite-framework:2.0.1] /Users/imtiaz/.gradle/caches/transforms-2/files-2.1/624d5cd17cdb96671dd6ab59137550c3/sqlite-framework-2.0.1/AndroidManifest.xml:20:5-44
MERGED from [androidx.sqlite:sqlite:2.0.1] /Users/imtiaz/.gradle/caches/transforms-2/files-2.1/cc53cb80a4f645356bc1b01912fc8c9b/sqlite-2.0.1/AndroidManifest.xml:20:5-44
MERGED from [androidx.sqlite:sqlite:2.0.1] /Users/imtiaz/.gradle/caches/transforms-2/files-2.1/cc53cb80a4f645356bc1b01912fc8c9b/sqlite-2.0.1/AndroidManifest.xml:20:5-44
MERGED from [androidx.lifecycle:lifecycle-livedata:2.0.0] /Users/imtiaz/.gradle/caches/transforms-2/files-2.1/cdeb3d84d2f9af673c9ac034634e826f/lifecycle-livedata-2.0.0/AndroidManifest.xml:20:5-44
MERGED from [androidx.lifecycle:lifecycle-livedata:2.0.0] /Users/imtiaz/.gradle/caches/transforms-2/files-2.1/cdeb3d84d2f9af673c9ac034634e826f/lifecycle-livedata-2.0.0/AndroidManifest.xml:20:5-44
MERGED from [androidx.lifecycle:lifecycle-livedata-core:2.0.0] /Users/imtiaz/.gradle/caches/transforms-2/files-2.1/00a3a65d2e04afc483113c228707ea83/lifecycle-livedata-core-2.0.0/AndroidManifest.xml:20:5-44
MERGED from [androidx.lifecycle:lifecycle-livedata-core:2.0.0] /Users/imtiaz/.gradle/caches/transforms-2/files-2.1/00a3a65d2e04afc483113c228707ea83/lifecycle-livedata-core-2.0.0/AndroidManifest.xml:20:5-44
MERGED from [androidx.arch.core:core-runtime:2.0.1] /Users/imtiaz/.gradle/caches/transforms-2/files-2.1/9911373ac01e5233ecec7974cdb44d24/core-runtime-2.0.1/AndroidManifest.xml:20:5-44
MERGED from [androidx.arch.core:core-runtime:2.0.1] /Users/imtiaz/.gradle/caches/transforms-2/files-2.1/9911373ac01e5233ecec7974cdb44d24/core-runtime-2.0.1/AndroidManifest.xml:20:5-44
MERGED from [androidx.lifecycle:lifecycle-service:2.0.0] /Users/imtiaz/.gradle/caches/transforms-2/files-2.1/5d366eeb972705d0274702cf2eefdafe/lifecycle-service-2.0.0/AndroidManifest.xml:20:5-44
MERGED from [androidx.lifecycle:lifecycle-service:2.0.0] /Users/imtiaz/.gradle/caches/transforms-2/files-2.1/5d366eeb972705d0274702cf2eefdafe/lifecycle-service-2.0.0/AndroidManifest.xml:20:5-44
MERGED from [androidx.lifecycle:lifecycle-runtime:2.0.0] /Users/imtiaz/.gradle/caches/transforms-2/files-2.1/807f3ecd5eb446b17830e8d3980708da/lifecycle-runtime-2.0.0/AndroidManifest.xml:20:5-44
MERGED from [androidx.lifecycle:lifecycle-runtime:2.0.0] /Users/imtiaz/.gradle/caches/transforms-2/files-2.1/807f3ecd5eb446b17830e8d3980708da/lifecycle-runtime-2.0.0/AndroidManifest.xml:20:5-44
MERGED from [androidx.documentfile:documentfile:1.0.0] /Users/imtiaz/.gradle/caches/transforms-2/files-2.1/711f04e157ad87ebb333f65a9801c142/documentfile-1.0.0/AndroidManifest.xml:20:5-44
MERGED from [androidx.documentfile:documentfile:1.0.0] /Users/imtiaz/.gradle/caches/transforms-2/files-2.1/711f04e157ad87ebb333f65a9801c142/documentfile-1.0.0/AndroidManifest.xml:20:5-44
MERGED from [androidx.localbroadcastmanager:localbroadcastmanager:1.0.0] /Users/imtiaz/.gradle/caches/transforms-2/files-2.1/ba2b6719c6e066691aebcd2baf385a47/localbroadcastmanager-1.0.0/AndroidManifest.xml:20:5-44
MERGED from [androidx.localbroadcastmanager:localbroadcastmanager:1.0.0] /Users/imtiaz/.gradle/caches/transforms-2/files-2.1/ba2b6719c6e066691aebcd2baf385a47/localbroadcastmanager-1.0.0/AndroidManifest.xml:20:5-44
MERGED from [androidx.print:print:1.0.0] /Users/imtiaz/.gradle/caches/transforms-2/files-2.1/cd313b8837998fadbae1597ba9092f28/print-1.0.0/AndroidManifest.xml:20:5-44
MERGED from [androidx.print:print:1.0.0] /Users/imtiaz/.gradle/caches/transforms-2/files-2.1/cd313b8837998fadbae1597ba9092f28/print-1.0.0/AndroidManifest.xml:20:5-44
MERGED from [androidx.lifecycle:lifecycle-viewmodel:2.0.0] /Users/imtiaz/.gradle/caches/transforms-2/files-2.1/4edad3bce772ed8ef98c86505afb37e9/lifecycle-viewmodel-2.0.0/AndroidManifest.xml:20:5-44
MERGED from [androidx.lifecycle:lifecycle-viewmodel:2.0.0] /Users/imtiaz/.gradle/caches/transforms-2/files-2.1/4edad3bce772ed8ef98c86505afb37e9/lifecycle-viewmodel-2.0.0/AndroidManifest.xml:20:5-44
MERGED from [androidx.interpolator:interpolator:1.0.0] /Users/imtiaz/.gradle/caches/transforms-2/files-2.1/d68fa1d31ac231d1bae77e58f0fdce42/interpolator-1.0.0/AndroidManifest.xml:20:5-44
MERGED from [androidx.interpolator:interpolator:1.0.0] /Users/imtiaz/.gradle/caches/transforms-2/files-2.1/d68fa1d31ac231d1bae77e58f0fdce42/interpolator-1.0.0/AndroidManifest.xml:20:5-44
INJECTED from /Users/imtiaz/AndroidStudioProjects/StarSync/app/src/main/AndroidManifest.xml
INJECTED from /Users/imtiaz/AndroidStudioProjects/StarSync/app/src/main/AndroidManifest.xml
	android:targetSdkVersion
		INJECTED from /Users/imtiaz/AndroidStudioProjects/StarSync/app/src/main/AndroidManifest.xml
		ADDED from /Users/imtiaz/AndroidStudioProjects/StarSync/app/src/main/AndroidManifest.xml
		INJECTED from /Users/imtiaz/AndroidStudioProjects/StarSync/app/src/main/AndroidManifest.xml
	android:minSdkVersion
		INJECTED from /Users/imtiaz/AndroidStudioProjects/StarSync/app/src/main/AndroidManifest.xml
		ADDED from /Users/imtiaz/AndroidStudioProjects/StarSync/app/src/main/AndroidManifest.xml
		INJECTED from /Users/imtiaz/AndroidStudioProjects/StarSync/app/src/main/AndroidManifest.xml
uses-permission#android.permission.WAKE_LOCK
ADDED from [androidx.work:work-runtime:2.1.0] /Users/imtiaz/.gradle/caches/transforms-2/files-2.1/3e6503735076ae8de0e110887b951a7e/work-runtime-2.1.0/AndroidManifest.xml:25:5-68
	android:name
		ADDED from [androidx.work:work-runtime:2.1.0] /Users/imtiaz/.gradle/caches/transforms-2/files-2.1/3e6503735076ae8de0e110887b951a7e/work-runtime-2.1.0/AndroidManifest.xml:25:22-65
uses-permission#android.permission.RECEIVE_BOOT_COMPLETED
ADDED from [androidx.work:work-runtime:2.1.0] /Users/imtiaz/.gradle/caches/transforms-2/files-2.1/3e6503735076ae8de0e110887b951a7e/work-runtime-2.1.0/AndroidManifest.xml:27:5-81
	android:name
		ADDED from [androidx.work:work-runtime:2.1.0] /Users/imtiaz/.gradle/caches/transforms-2/files-2.1/3e6503735076ae8de0e110887b951a7e/work-runtime-2.1.0/AndroidManifest.xml:27:22-78
provider#androidx.work.impl.WorkManagerInitializer
ADDED from [androidx.work:work-runtime:2.1.0] /Users/imtiaz/.gradle/caches/transforms-2/files-2.1/3e6503735076ae8de0e110887b951a7e/work-runtime-2.1.0/AndroidManifest.xml:30:9-36:35
	android:authorities
		ADDED from [androidx.work:work-runtime:2.1.0] /Users/imtiaz/.gradle/caches/transforms-2/files-2.1/3e6503735076ae8de0e110887b951a7e/work-runtime-2.1.0/AndroidManifest.xml:32:13-68
	android:multiprocess
		ADDED from [androidx.work:work-runtime:2.1.0] /Users/imtiaz/.gradle/caches/transforms-2/files-2.1/3e6503735076ae8de0e110887b951a7e/work-runtime-2.1.0/AndroidManifest.xml:35:13-40
	android:exported
		ADDED from [androidx.work:work-runtime:2.1.0] /Users/imtiaz/.gradle/caches/transforms-2/files-2.1/3e6503735076ae8de0e110887b951a7e/work-runtime-2.1.0/AndroidManifest.xml:34:13-37
	tools:targetApi
		ADDED from [androidx.work:work-runtime:2.1.0] /Users/imtiaz/.gradle/caches/transforms-2/files-2.1/3e6503735076ae8de0e110887b951a7e/work-runtime-2.1.0/AndroidManifest.xml:36:13-32
	android:directBootAware
		ADDED from [androidx.work:work-runtime:2.1.0] /Users/imtiaz/.gradle/caches/transforms-2/files-2.1/3e6503735076ae8de0e110887b951a7e/work-runtime-2.1.0/AndroidManifest.xml:33:13-44
	android:name
		ADDED from [androidx.work:work-runtime:2.1.0] /Users/imtiaz/.gradle/caches/transforms-2/files-2.1/3e6503735076ae8de0e110887b951a7e/work-runtime-2.1.0/AndroidManifest.xml:31:13-69
service#androidx.work.impl.background.systemalarm.SystemAlarmService
ADDED from [androidx.work:work-runtime:2.1.0] /Users/imtiaz/.gradle/caches/transforms-2/files-2.1/3e6503735076ae8de0e110887b951a7e/work-runtime-2.1.0/AndroidManifest.xml:38:9-43:35
	android:enabled
		ADDED from [androidx.work:work-runtime:2.1.0] /Users/imtiaz/.gradle/caches/transforms-2/files-2.1/3e6503735076ae8de0e110887b951a7e/work-runtime-2.1.0/AndroidManifest.xml:41:13-72
	android:exported
		ADDED from [androidx.work:work-runtime:2.1.0] /Users/imtiaz/.gradle/caches/transforms-2/files-2.1/3e6503735076ae8de0e110887b951a7e/work-runtime-2.1.0/AndroidManifest.xml:42:13-37
	tools:targetApi
		ADDED from [androidx.work:work-runtime:2.1.0] /Users/imtiaz/.gradle/caches/transforms-2/files-2.1/3e6503735076ae8de0e110887b951a7e/work-runtime-2.1.0/AndroidManifest.xml:43:13-32
	android:directBootAware
		ADDED from [androidx.work:work-runtime:2.1.0] /Users/imtiaz/.gradle/caches/transforms-2/files-2.1/3e6503735076ae8de0e110887b951a7e/work-runtime-2.1.0/AndroidManifest.xml:40:13-44
	android:name
		ADDED from [androidx.work:work-runtime:2.1.0] /Users/imtiaz/.gradle/caches/transforms-2/files-2.1/3e6503735076ae8de0e110887b951a7e/work-runtime-2.1.0/AndroidManifest.xml:39:13-88
service#androidx.work.impl.background.systemjob.SystemJobService
ADDED from [androidx.work:work-runtime:2.1.0] /Users/imtiaz/.gradle/caches/transforms-2/files-2.1/3e6503735076ae8de0e110887b951a7e/work-runtime-2.1.0/AndroidManifest.xml:44:9-50:35
	android:enabled
		ADDED from [androidx.work:work-runtime:2.1.0] /Users/imtiaz/.gradle/caches/transforms-2/files-2.1/3e6503735076ae8de0e110887b951a7e/work-runtime-2.1.0/AndroidManifest.xml:47:13-70
	android:exported
		ADDED from [androidx.work:work-runtime:2.1.0] /Users/imtiaz/.gradle/caches/transforms-2/files-2.1/3e6503735076ae8de0e110887b951a7e/work-runtime-2.1.0/AndroidManifest.xml:48:13-36
	android:permission
		ADDED from [androidx.work:work-runtime:2.1.0] /Users/imtiaz/.gradle/caches/transforms-2/files-2.1/3e6503735076ae8de0e110887b951a7e/work-runtime-2.1.0/AndroidManifest.xml:49:13-69
	tools:targetApi
		ADDED from [androidx.work:work-runtime:2.1.0] /Users/imtiaz/.gradle/caches/transforms-2/files-2.1/3e6503735076ae8de0e110887b951a7e/work-runtime-2.1.0/AndroidManifest.xml:50:13-32
	android:directBootAware
		ADDED from [androidx.work:work-runtime:2.1.0] /Users/imtiaz/.gradle/caches/transforms-2/files-2.1/3e6503735076ae8de0e110887b951a7e/work-runtime-2.1.0/AndroidManifest.xml:46:13-44
	android:name
		ADDED from [androidx.work:work-runtime:2.1.0] /Users/imtiaz/.gradle/caches/transforms-2/files-2.1/3e6503735076ae8de0e110887b951a7e/work-runtime-2.1.0/AndroidManifest.xml:45:13-84
receiver#androidx.work.impl.utils.ForceStopRunnable$BroadcastReceiver
ADDED from [androidx.work:work-runtime:2.1.0] /Users/imtiaz/.gradle/caches/transforms-2/files-2.1/3e6503735076ae8de0e110887b951a7e/work-runtime-2.1.0/AndroidManifest.xml:52:9-57:35
	android:enabled
		ADDED from [androidx.work:work-runtime:2.1.0] /Users/imtiaz/.gradle/caches/transforms-2/files-2.1/3e6503735076ae8de0e110887b951a7e/work-runtime-2.1.0/AndroidManifest.xml:55:13-35
	android:exported
		ADDED from [androidx.work:work-runtime:2.1.0] /Users/imtiaz/.gradle/caches/transforms-2/files-2.1/3e6503735076ae8de0e110887b951a7e/work-runtime-2.1.0/AndroidManifest.xml:56:13-37
	tools:targetApi
		ADDED from [androidx.work:work-runtime:2.1.0] /Users/imtiaz/.gradle/caches/transforms-2/files-2.1/3e6503735076ae8de0e110887b951a7e/work-runtime-2.1.0/AndroidManifest.xml:57:13-32
	android:directBootAware
		ADDED from [androidx.work:work-runtime:2.1.0] /Users/imtiaz/.gradle/caches/transforms-2/files-2.1/3e6503735076ae8de0e110887b951a7e/work-runtime-2.1.0/AndroidManifest.xml:54:13-44
	android:name
		ADDED from [androidx.work:work-runtime:2.1.0] /Users/imtiaz/.gradle/caches/transforms-2/files-2.1/3e6503735076ae8de0e110887b951a7e/work-runtime-2.1.0/AndroidManifest.xml:53:13-88
receiver#androidx.work.impl.background.systemalarm.ConstraintProxy$BatteryChargingProxy
ADDED from [androidx.work:work-runtime:2.1.0] /Users/imtiaz/.gradle/caches/transforms-2/files-2.1/3e6503735076ae8de0e110887b951a7e/work-runtime-2.1.0/AndroidManifest.xml:58:9-68:20
	android:enabled
		ADDED from [androidx.work:work-runtime:2.1.0] /Users/imtiaz/.gradle/caches/transforms-2/files-2.1/3e6503735076ae8de0e110887b951a7e/work-runtime-2.1.0/AndroidManifest.xml:61:13-36
	android:exported
		ADDED from [androidx.work:work-runtime:2.1.0] /Users/imtiaz/.gradle/caches/transforms-2/files-2.1/3e6503735076ae8de0e110887b951a7e/work-runtime-2.1.0/AndroidManifest.xml:62:13-37
	tools:targetApi
		ADDED from [androidx.work:work-runtime:2.1.0] /Users/imtiaz/.gradle/caches/transforms-2/files-2.1/3e6503735076ae8de0e110887b951a7e/work-runtime-2.1.0/AndroidManifest.xml:63:13-32
	android:directBootAware
		ADDED from [androidx.work:work-runtime:2.1.0] /Users/imtiaz/.gradle/caches/transforms-2/files-2.1/3e6503735076ae8de0e110887b951a7e/work-runtime-2.1.0/AndroidManifest.xml:60:13-44
	android:name
		ADDED from [androidx.work:work-runtime:2.1.0] /Users/imtiaz/.gradle/caches/transforms-2/files-2.1/3e6503735076ae8de0e110887b951a7e/work-runtime-2.1.0/AndroidManifest.xml:59:13-106
intent-filter#action:name:android.intent.action.ACTION_POWER_CONNECTED+action:name:android.intent.action.ACTION_POWER_DISCONNECTED
ADDED from [androidx.work:work-runtime:2.1.0] /Users/imtiaz/.gradle/caches/transforms-2/files-2.1/3e6503735076ae8de0e110887b951a7e/work-runtime-2.1.0/AndroidManifest.xml:64:13-67:29
action#android.intent.action.ACTION_POWER_CONNECTED
ADDED from [androidx.work:work-runtime:2.1.0] /Users/imtiaz/.gradle/caches/transforms-2/files-2.1/3e6503735076ae8de0e110887b951a7e/work-runtime-2.1.0/AndroidManifest.xml:65:17-87
	android:name
		ADDED from [androidx.work:work-runtime:2.1.0] /Users/imtiaz/.gradle/caches/transforms-2/files-2.1/3e6503735076ae8de0e110887b951a7e/work-runtime-2.1.0/AndroidManifest.xml:65:25-84
action#android.intent.action.ACTION_POWER_DISCONNECTED
ADDED from [androidx.work:work-runtime:2.1.0] /Users/imtiaz/.gradle/caches/transforms-2/files-2.1/3e6503735076ae8de0e110887b951a7e/work-runtime-2.1.0/AndroidManifest.xml:66:17-90
	android:name
		ADDED from [androidx.work:work-runtime:2.1.0] /Users/imtiaz/.gradle/caches/transforms-2/files-2.1/3e6503735076ae8de0e110887b951a7e/work-runtime-2.1.0/AndroidManifest.xml:66:25-87
receiver#androidx.work.impl.background.systemalarm.ConstraintProxy$BatteryNotLowProxy
ADDED from [androidx.work:work-runtime:2.1.0] /Users/imtiaz/.gradle/caches/transforms-2/files-2.1/3e6503735076ae8de0e110887b951a7e/work-runtime-2.1.0/AndroidManifest.xml:69:9-79:20
	android:enabled
		ADDED from [androidx.work:work-runtime:2.1.0] /Users/imtiaz/.gradle/caches/transforms-2/files-2.1/3e6503735076ae8de0e110887b951a7e/work-runtime-2.1.0/AndroidManifest.xml:72:13-36
	android:exported
		ADDED from [androidx.work:work-runtime:2.1.0] /Users/imtiaz/.gradle/caches/transforms-2/files-2.1/3e6503735076ae8de0e110887b951a7e/work-runtime-2.1.0/AndroidManifest.xml:73:13-37
	tools:targetApi
		ADDED from [androidx.work:work-runtime:2.1.0] /Users/imtiaz/.gradle/caches/transforms-2/files-2.1/3e6503735076ae8de0e110887b951a7e/work-runtime-2.1.0/AndroidManifest.xml:74:13-32
	android:directBootAware
		ADDED from [androidx.work:work-runtime:2.1.0] /Users/imtiaz/.gradle/caches/transforms-2/files-2.1/3e6503735076ae8de0e110887b951a7e/work-runtime-2.1.0/AndroidManifest.xml:71:13-44
	android:name
		ADDED from [androidx.work:work-runtime:2.1.0] /Users/imtiaz/.gradle/caches/transforms-2/files-2.1/3e6503735076ae8de0e110887b951a7e/work-runtime-2.1.0/AndroidManifest.xml:70:13-104
intent-filter#action:name:android.intent.action.BATTERY_LOW+action:name:android.intent.action.BATTERY_OKAY
ADDED from [androidx.work:work-runtime:2.1.0] /Users/imtiaz/.gradle/caches/transforms-2/files-2.1/3e6503735076ae8de0e110887b951a7e/work-runtime-2.1.0/AndroidManifest.xml:75:13-78:29
action#android.intent.action.BATTERY_OKAY
ADDED from [androidx.work:work-runtime:2.1.0] /Users/imtiaz/.gradle/caches/transforms-2/files-2.1/3e6503735076ae8de0e110887b951a7e/work-runtime-2.1.0/AndroidManifest.xml:76:17-77
	android:name
		ADDED from [androidx.work:work-runtime:2.1.0] /Users/imtiaz/.gradle/caches/transforms-2/files-2.1/3e6503735076ae8de0e110887b951a7e/work-runtime-2.1.0/AndroidManifest.xml:76:25-74
action#android.intent.action.BATTERY_LOW
ADDED from [androidx.work:work-runtime:2.1.0] /Users/imtiaz/.gradle/caches/transforms-2/files-2.1/3e6503735076ae8de0e110887b951a7e/work-runtime-2.1.0/AndroidManifest.xml:77:17-76
	android:name
		ADDED from [androidx.work:work-runtime:2.1.0] /Users/imtiaz/.gradle/caches/transforms-2/files-2.1/3e6503735076ae8de0e110887b951a7e/work-runtime-2.1.0/AndroidManifest.xml:77:25-73
receiver#androidx.work.impl.background.systemalarm.ConstraintProxy$StorageNotLowProxy
ADDED from [androidx.work:work-runtime:2.1.0] /Users/imtiaz/.gradle/caches/transforms-2/files-2.1/3e6503735076ae8de0e110887b951a7e/work-runtime-2.1.0/AndroidManifest.xml:80:9-90:20
	android:enabled
		ADDED from [androidx.work:work-runtime:2.1.0] /Users/imtiaz/.gradle/caches/transforms-2/files-2.1/3e6503735076ae8de0e110887b951a7e/work-runtime-2.1.0/AndroidManifest.xml:83:13-36
	android:exported
		ADDED from [androidx.work:work-runtime:2.1.0] /Users/imtiaz/.gradle/caches/transforms-2/files-2.1/3e6503735076ae8de0e110887b951a7e/work-runtime-2.1.0/AndroidManifest.xml:84:13-37
	tools:targetApi
		ADDED from [androidx.work:work-runtime:2.1.0] /Users/imtiaz/.gradle/caches/transforms-2/files-2.1/3e6503735076ae8de0e110887b951a7e/work-runtime-2.1.0/AndroidManifest.xml:85:13-32
	android:directBootAware
		ADDED from [androidx.work:work-runtime:2.1.0] /Users/imtiaz/.gradle/caches/transforms-2/files-2.1/3e6503735076ae8de0e110887b951a7e/work-runtime-2.1.0/AndroidManifest.xml:82:13-44
	android:name
		ADDED from [androidx.work:work-runtime:2.1.0] /Users/imtiaz/.gradle/caches/transforms-2/files-2.1/3e6503735076ae8de0e110887b951a7e/work-runtime-2.1.0/AndroidManifest.xml:81:13-104
intent-filter#action:name:android.intent.action.DEVICE_STORAGE_LOW+action:name:android.intent.action.DEVICE_STORAGE_OK
ADDED from [androidx.work:work-runtime:2.1.0] /Users/imtiaz/.gradle/caches/transforms-2/files-2.1/3e6503735076ae8de0e110887b951a7e/work-runtime-2.1.0/AndroidManifest.xml:86:13-89:29
action#android.intent.action.DEVICE_STORAGE_LOW
ADDED from [androidx.work:work-runtime:2.1.0] /Users/imtiaz/.gradle/caches/transforms-2/files-2.1/3e6503735076ae8de0e110887b951a7e/work-runtime-2.1.0/AndroidManifest.xml:87:17-83
	android:name
		ADDED from [androidx.work:work-runtime:2.1.0] /Users/imtiaz/.gradle/caches/transforms-2/files-2.1/3e6503735076ae8de0e110887b951a7e/work-runtime-2.1.0/AndroidManifest.xml:87:25-80
action#android.intent.action.DEVICE_STORAGE_OK
ADDED from [androidx.work:work-runtime:2.1.0] /Users/imtiaz/.gradle/caches/transforms-2/files-2.1/3e6503735076ae8de0e110887b951a7e/work-runtime-2.1.0/AndroidManifest.xml:88:17-82
	android:name
		ADDED from [androidx.work:work-runtime:2.1.0] /Users/imtiaz/.gradle/caches/transforms-2/files-2.1/3e6503735076ae8de0e110887b951a7e/work-runtime-2.1.0/AndroidManifest.xml:88:25-79
receiver#androidx.work.impl.background.systemalarm.ConstraintProxy$NetworkStateProxy
ADDED from [androidx.work:work-runtime:2.1.0] /Users/imtiaz/.gradle/caches/transforms-2/files-2.1/3e6503735076ae8de0e110887b951a7e/work-runtime-2.1.0/AndroidManifest.xml:91:9-100:20
	android:enabled
		ADDED from [androidx.work:work-runtime:2.1.0] /Users/imtiaz/.gradle/caches/transforms-2/files-2.1/3e6503735076ae8de0e110887b951a7e/work-runtime-2.1.0/AndroidManifest.xml:94:13-36
	android:exported
		ADDED from [androidx.work:work-runtime:2.1.0] /Users/imtiaz/.gradle/caches/transforms-2/files-2.1/3e6503735076ae8de0e110887b951a7e/work-runtime-2.1.0/AndroidManifest.xml:95:13-37
	tools:targetApi
		ADDED from [androidx.work:work-runtime:2.1.0] /Users/imtiaz/.gradle/caches/transforms-2/files-2.1/3e6503735076ae8de0e110887b951a7e/work-runtime-2.1.0/AndroidManifest.xml:96:13-32
	android:directBootAware
		ADDED from [androidx.work:work-runtime:2.1.0] /Users/imtiaz/.gradle/caches/transforms-2/files-2.1/3e6503735076ae8de0e110887b951a7e/work-runtime-2.1.0/AndroidManifest.xml:93:13-44
	android:name
		ADDED from [androidx.work:work-runtime:2.1.0] /Users/imtiaz/.gradle/caches/transforms-2/files-2.1/3e6503735076ae8de0e110887b951a7e/work-runtime-2.1.0/AndroidManifest.xml:92:13-103
intent-filter#action:name:android.net.conn.CONNECTIVITY_CHANGE
ADDED from [androidx.work:work-runtime:2.1.0] /Users/imtiaz/.gradle/caches/transforms-2/files-2.1/3e6503735076ae8de0e110887b951a7e/work-runtime-2.1.0/AndroidManifest.xml:97:13-99:29
action#android.net.conn.CONNECTIVITY_CHANGE
ADDED from [androidx.work:work-runtime:2.1.0] /Users/imtiaz/.gradle/caches/transforms-2/files-2.1/3e6503735076ae8de0e110887b951a7e/work-runtime-2.1.0/AndroidManifest.xml:98:17-79
	android:name
		ADDED from [androidx.work:work-runtime:2.1.0] /Users/imtiaz/.gradle/caches/transforms-2/files-2.1/3e6503735076ae8de0e110887b951a7e/work-runtime-2.1.0/AndroidManifest.xml:98:25-76
receiver#androidx.work.impl.background.systemalarm.RescheduleReceiver
ADDED from [androidx.work:work-runtime:2.1.0] /Users/imtiaz/.gradle/caches/transforms-2/files-2.1/3e6503735076ae8de0e110887b951a7e/work-runtime-2.1.0/AndroidManifest.xml:101:9-112:20
	android:enabled
		ADDED from [androidx.work:work-runtime:2.1.0] /Users/imtiaz/.gradle/caches/transforms-2/files-2.1/3e6503735076ae8de0e110887b951a7e/work-runtime-2.1.0/AndroidManifest.xml:104:13-36
	android:exported
		ADDED from [androidx.work:work-runtime:2.1.0] /Users/imtiaz/.gradle/caches/transforms-2/files-2.1/3e6503735076ae8de0e110887b951a7e/work-runtime-2.1.0/AndroidManifest.xml:105:13-37
	tools:targetApi
		ADDED from [androidx.work:work-runtime:2.1.0] /Users/imtiaz/.gradle/caches/transforms-2/files-2.1/3e6503735076ae8de0e110887b951a7e/work-runtime-2.1.0/AndroidManifest.xml:106:13-32
	android:directBootAware
		ADDED from [androidx.work:work-runtime:2.1.0] /Users/imtiaz/.gradle/caches/transforms-2/files-2.1/3e6503735076ae8de0e110887b951a7e/work-runtime-2.1.0/AndroidManifest.xml:103:13-44
	android:name
		ADDED from [androidx.work:work-runtime:2.1.0] /Users/imtiaz/.gradle/caches/transforms-2/files-2.1/3e6503735076ae8de0e110887b951a7e/work-runtime-2.1.0/AndroidManifest.xml:102:13-88
intent-filter#action:name:android.intent.action.BOOT_COMPLETED+action:name:android.intent.action.TIMEZONE_CHANGED+action:name:android.intent.action.TIME_SET
ADDED from [androidx.work:work-runtime:2.1.0] /Users/imtiaz/.gradle/caches/transforms-2/files-2.1/3e6503735076ae8de0e110887b951a7e/work-runtime-2.1.0/AndroidManifest.xml:107:13-111:29
action#android.intent.action.BOOT_COMPLETED
ADDED from [androidx.work:work-runtime:2.1.0] /Users/imtiaz/.gradle/caches/transforms-2/files-2.1/3e6503735076ae8de0e110887b951a7e/work-runtime-2.1.0/AndroidManifest.xml:108:17-79
	android:name
		ADDED from [androidx.work:work-runtime:2.1.0] /Users/imtiaz/.gradle/caches/transforms-2/files-2.1/3e6503735076ae8de0e110887b951a7e/work-runtime-2.1.0/AndroidManifest.xml:108:25-76
action#android.intent.action.TIME_SET
ADDED from [androidx.work:work-runtime:2.1.0] /Users/imtiaz/.gradle/caches/transforms-2/files-2.1/3e6503735076ae8de0e110887b951a7e/work-runtime-2.1.0/AndroidManifest.xml:109:17-73
	android:name
		ADDED from [androidx.work:work-runtime:2.1.0] /Users/imtiaz/.gradle/caches/transforms-2/files-2.1/3e6503735076ae8de0e110887b951a7e/work-runtime-2.1.0/AndroidManifest.xml:109:25-70
action#android.intent.action.TIMEZONE_CHANGED
ADDED from [androidx.work:work-runtime:2.1.0] /Users/imtiaz/.gradle/caches/transforms-2/files-2.1/3e6503735076ae8de0e110887b951a7e/work-runtime-2.1.0/AndroidManifest.xml:110:17-81
	android:name
		ADDED from [androidx.work:work-runtime:2.1.0] /Users/imtiaz/.gradle/caches/transforms-2/files-2.1/3e6503735076ae8de0e110887b951a7e/work-runtime-2.1.0/AndroidManifest.xml:110:25-78
receiver#androidx.work.impl.background.systemalarm.ConstraintProxyUpdateReceiver
ADDED from [androidx.work:work-runtime:2.1.0] /Users/imtiaz/.gradle/caches/transforms-2/files-2.1/3e6503735076ae8de0e110887b951a7e/work-runtime-2.1.0/AndroidManifest.xml:113:9-122:20
	android:enabled
		ADDED from [androidx.work:work-runtime:2.1.0] /Users/imtiaz/.gradle/caches/transforms-2/files-2.1/3e6503735076ae8de0e110887b951a7e/work-runtime-2.1.0/AndroidManifest.xml:116:13-72
	android:exported
		ADDED from [androidx.work:work-runtime:2.1.0] /Users/imtiaz/.gradle/caches/transforms-2/files-2.1/3e6503735076ae8de0e110887b951a7e/work-runtime-2.1.0/AndroidManifest.xml:117:13-37
	tools:targetApi
		ADDED from [androidx.work:work-runtime:2.1.0] /Users/imtiaz/.gradle/caches/transforms-2/files-2.1/3e6503735076ae8de0e110887b951a7e/work-runtime-2.1.0/AndroidManifest.xml:118:13-32
	android:directBootAware
		ADDED from [androidx.work:work-runtime:2.1.0] /Users/imtiaz/.gradle/caches/transforms-2/files-2.1/3e6503735076ae8de0e110887b951a7e/work-runtime-2.1.0/AndroidManifest.xml:115:13-44
	android:name
		ADDED from [androidx.work:work-runtime:2.1.0] /Users/imtiaz/.gradle/caches/transforms-2/files-2.1/3e6503735076ae8de0e110887b951a7e/work-runtime-2.1.0/AndroidManifest.xml:114:13-99
intent-filter#action:name:androidx.work.impl.background.systemalarm.UpdateProxies
ADDED from [androidx.work:work-runtime:2.1.0] /Users/imtiaz/.gradle/caches/transforms-2/files-2.1/3e6503735076ae8de0e110887b951a7e/work-runtime-2.1.0/AndroidManifest.xml:119:13-121:29
action#androidx.work.impl.background.systemalarm.UpdateProxies
ADDED from [androidx.work:work-runtime:2.1.0] /Users/imtiaz/.gradle/caches/transforms-2/files-2.1/3e6503735076ae8de0e110887b951a7e/work-runtime-2.1.0/AndroidManifest.xml:120:17-98
	android:name
		ADDED from [androidx.work:work-runtime:2.1.0] /Users/imtiaz/.gradle/caches/transforms-2/files-2.1/3e6503735076ae8de0e110887b951a7e/work-runtime-2.1.0/AndroidManifest.xml:120:25-95
service#androidx.room.MultiInstanceInvalidationService
ADDED from [androidx.room:room-runtime:2.1.0] /Users/imtiaz/.gradle/caches/transforms-2/files-2.1/5b2ae658b535ff5d7028032083f378e4/room-runtime-2.1.0/AndroidManifest.xml:25:9-27:40
	android:exported
		ADDED from [androidx.room:room-runtime:2.1.0] /Users/imtiaz/.gradle/caches/transforms-2/files-2.1/5b2ae658b535ff5d7028032083f378e4/room-runtime-2.1.0/AndroidManifest.xml:27:13-37
	android:name
		ADDED from [androidx.room:room-runtime:2.1.0] /Users/imtiaz/.gradle/caches/transforms-2/files-2.1/5b2ae658b535ff5d7028032083f378e4/room-runtime-2.1.0/AndroidManifest.xml:26:13-74
